{
    "page": 1,
    "total_results": 3892,
    "total_pages": 195,
    "results": [
    {
    "vote_count": 4,
    "id": 178929,
    "video": false,
    "vote_average": 7.6,
    "title": "The Overture",
    "popularity": 0.808,
    "poster_path": "/e5IUfHstyHn2YdhCZDTYDHCVw7b.jpg",
    "original_language": "th",
    "original_title": "โหมโรง",
    "genre_ids": [
    18,
    10402
    ],
    "backdrop_path": "/vHuyvd0eUOJLvi0xjYYquXutMG0.jpg",
    "adult": false,
    "overview": "Based on the life of Luang Pradit Pairoh (Sorn Silapabanleng) the most revered traditional Thai music master who lived during the reigns of Kings Rama V to VIII, the movie traces the life of Sorn, who picked up the ra-nad ek (Thai xylophone) mallets as a small child and played all his life. The backdrop to Sorn's life tale is the story of Thailand's classical music from its golden age during the reign of King Rama V to near extinction after the end of the absolute monarchy when the government banned it as uncivilised in the 1930s -- a time when Field Marshall Plaek Pibulsongkram tried to push the Kingdom into the modern era.",
    "release_date": "2004-06-30"
    },
    {
    "vote_count": 1,
    "id": 464913,
    "video": false,
    "vote_average": 6,
    "title": "The Girl from Yesterday",
    "popularity": 0.646,
    "poster_path": "/sgxbjhltcIHfZAHXJdh0Q6WAYVA.jpg",
    "original_language": "vi",
    "original_title": "Cô gái đến từ hôm qua",
    "genre_ids": [
    35,
    10749
    ],
    "backdrop_path": "/vbR5gMkgfNhfZSyoQ91o5kojddh.jpg",
    "adult": false,
    "overview": "A teenage boy causes problems on an everyday basis. He falls in love with a transfer student and becomes close to her, but he keeps thinking about his first love from early childhood that he couldn't confess his feelings to.",
    "release_date": "2017-07-21"
    },
    {
    "vote_count": 1380,
    "id": 204082,
    "video": false,
    "vote_average": 6.4,
    "title": "Homefront",
    "popularity": 13.063,
    "poster_path": "/6ymSuhG28tF2lnDxVTNibzlYzn0.jpg",
    "original_language": "en",
    "original_title": "Homefront",
    "genre_ids": [
    28,
    53
    ],
    "backdrop_path": "/vcFs3Vh6g6A5K9zZeFYnQNHLUQb.jpg",
    "adult": false,
    "overview": "Phil Broker is a former DEA agent who has gone through a crisis after his action against a biker gang went horribly wrong and it cost the life of his boss' son. He is recently widowed and is left with a 9-years-old daughter,Maddy. He decides to quit the turbulent and demanding life of thrill for Maddy's sake and retires to a small town. His daughter fights off a boy who was bullying her at school and this sets in motion a round of events that end in his direct confrontation with the local Meth drug lord. His past history with the biker gang also enters the arena, making matters more complex. But he has a mission in his mind to protect his daughter and he is ready to pay any cost that it demands.",
    "release_date": "2013-11-27"
    },
    {
    "vote_count": 2319,
    "id": 228161,
    "video": false,
    "vote_average": 6.8,
    "title": "Home",
    "popularity": 12.279,
    "poster_path": "/b7czgMTk5txqLr2UczBb0Wez77E.jpg",
    "original_language": "en",
    "original_title": "Home",
    "genre_ids": [
    14,
    35,
    16,
    878,
    10751
    ],
    "backdrop_path": "/6xjBbCZp3bXFps5ET1Y4zfq6bws.jpg",
    "adult": false,
    "overview": "When Earth is taken over by the overly-confident Boov, an alien race in search of a new place to call home, all humans are promptly relocated, while all Boov get busy reorganizing the planet. But when one resourceful girl, Tip, manages to avoid capture, she finds herself the accidental accomplice of a banished Boov named Oh. The two fugitives realize there’s a lot more at stake than intergalactic relations as they embark on the road trip of a lifetime.",
    "release_date": "2015-03-18"
    },
    {
    "vote_count": 262,
    "id": 62320,
    "video": false,
    "vote_average": 7.9,
    "title": "Home",
    "popularity": 8.916,
    "poster_path": "/e56ousD9hf0wY14sDI737jCtkYz.jpg",
    "original_language": "fr",
    "original_title": "Home",
    "genre_ids": [
    99
    ],
    "backdrop_path": "/5dMIkKLZ1vF4Oebr2BRVIeYdk92.jpg",
    "adult": false,
    "overview": "With aerial footage from 54 countries, HOME is a depiction of how the Earth's problems are all interlinked.",
    "release_date": "2009-06-03"
    },
    {
    "vote_count": 83,
    "id": 27945,
    "video": false,
    "vote_average": 7.2,
    "title": "Hombre",
    "popularity": 7.927,
    "poster_path": "/p8scdJqfnEKgEgWQwGJq7hJiE3D.jpg",
    "original_language": "en",
    "original_title": "Hombre",
    "genre_ids": [
    37
    ],
    "backdrop_path": "/hSlBVnFsHnTyrxkUmtT1RusLZUV.jpg",
    "adult": false,
    "overview": "John Russell, disdained by his \"respectable\" fellow stagecoach passengers because he was raised by Indians, becomes their only hope for survival when they are set upon by outlaws.",
    "release_date": "1967-03-21"
    },
    {
    "vote_count": 74,
    "id": 22681,
    "video": false,
    "vote_average": 5.3,
    "title": "Homecoming",
    "popularity": 7.381,
    "poster_path": "/kZITJhx3Ih14sLStVpLLVAILBMi.jpg",
    "original_language": "en",
    "original_title": "Homecoming",
    "genre_ids": [
    27,
    53
    ],
    "backdrop_path": "/uGzcZInOGAh5AwpT7X7JquvDRmc.jpg",
    "adult": false,
    "overview": "A jealous woman plots revenge after her former beau returns to their hometown with a pretty new girlfriend.",
    "release_date": "2009-07-17"
    },
    {
    "vote_count": 45,
    "id": 22828,
    "video": false,
    "vote_average": 6.3,
    "title": "Homicide",
    "popularity": 3.79,
    "poster_path": "/tr6ERlXWAQumU9kRTCbEEGPJurc.jpg",
    "original_language": "en",
    "original_title": "Homicide",
    "genre_ids": [
    18,
    80
    ],
    "backdrop_path": "/6zt8sn4lmj7j61limKexyKGEAPY.jpg",
    "adult": false,
    "overview": "Bobby Gold is a career cop who is reassigned from a hunt for a cop killer to the investigation of the murder of an old Jewish woman in Baltimore, and in the process finds himself exploring his own sense of identity.",
    "release_date": "1991-05-28"
    },
    {
    "vote_count": 509,
    "id": 12536,
    "video": false,
    "vote_average": 4.2,
    "title": "Home Alone 4",
    "popularity": 33.878,
    "poster_path": "/359bHILkiD6ZVCq6WoHSD0UuJQV.jpg",
    "original_language": "en",
    "original_title": "Home Alone 4",
    "genre_ids": [
    80,
    35,
    10751
    ],
    "backdrop_path": "/xcM06BgNt3cpIVUHRCTTxwo4JJh.jpg",
    "adult": false,
    "overview": "Kevin McCallister's parents have split up. Now living with his mom, he decides to spend Christmas with his dad at the mansion of his father's rich girlfriend, Natalie. Meanwhile robber Marv Merchants, one of the villains from the first two movies, partners up with a new criminal named Vera to hit Natalie's mansion.",
    "release_date": "2003-11-26"
    },
    {
    "vote_count": 41,
    "id": 61222,
    "video": false,
    "vote_average": 7.2,
    "title": "Home",
    "popularity": 3.609,
    "poster_path": "/xI0ng1PmzFhvjk3hHafK4GutPJX.jpg",
    "original_language": "fr",
    "original_title": "Home",
    "genre_ids": [
    18
    ],
    "backdrop_path": "/rx7UXy0OcWZuZwn9NI20wClwLbT.jpg",
    "adult": false,
    "overview": "Marthe (Isabelle Huppert) and Michel (Olivier Gourmet) live with their three children in a  remote house next to an abandoned highway using it as an extension to their property. One day without warning, construction workers begin to upgrade the road and the highway becomes open to traffic. Their lives are forever changed.",
    "release_date": "2008-10-29"
    },
    {
    "vote_count": 385,
    "id": 264656,
    "video": false,
    "vote_average": 6.5,
    "title": "The Homesman",
    "popularity": 13.076,
    "poster_path": "/wzOzeuWYIlRq7Eus1TWnHtYo304.jpg",
    "original_language": "en",
    "original_title": "The Homesman",
    "genre_ids": [
    37,
    18
    ],
    "backdrop_path": "/c58oBT5z2QwRMvnUC9FMgYgDDdY.jpg",
    "adult": false,
    "overview": "When three women living on the edge of the American frontier are driven mad by harsh pioneer life, the task of saving them falls to the pious, independent-minded Mary Bee Cuddy. Transporting the women by covered wagon to Iowa, she soon realizes just how daunting the journey will be, and employs a low-life drifter, George Briggs, to join her. The unlikely pair and the three women head east, where a waiting minister and his wife have offered to take the women in. But the group first must traverse the harsh Nebraska Territories marked by stark beauty, psychological peril and constant threat.",
    "release_date": "2014-05-18"
    },
    {
    "vote_count": 325,
    "id": 50725,
    "video": false,
    "vote_average": 6.1,
    "title": "Take Me Home Tonight",
    "popularity": 29.998,
    "poster_path": "/glRBoVKClP7qYQO0gQi5keCQ6ko.jpg",
    "original_language": "en",
    "original_title": "Take Me Home Tonight",
    "genre_ids": [
    35,
    18,
    10749
    ],
    "backdrop_path": "/8eCiasauFjjYAOZ81cRwNZGlgnP.jpg",
    "adult": false,
    "overview": "Recent MIT grad Matt Franklin should be well on his way to a successful career at a Fortune 500 company, but instead he rebels against maturity by taking a job at a video store. Matt rethinks his position when his unrequited high-school crush, Tori, walks in and invites him to an end-of-summer party. With the help of his twin sister and his best friend, Matt hatches a plan to change the course of his life.",
    "release_date": "2011-03-04"
    },
    {
    "vote_count": 641,
    "id": 427900,
    "video": false,
    "vote_average": 6,
    "title": "Home Again",
    "popularity": 9.11,
    "poster_path": "/pE4VHzhDZgvbx2QOllaXXPADiW1.jpg",
    "original_language": "en",
    "original_title": "Home Again",
    "genre_ids": [
    35,
    18,
    10749
    ],
    "backdrop_path": "/xzXPybvwRXGIU5Bbw68YHVkTUW2.jpg",
    "adult": false,
    "overview": "Life for a single mom in Los Angeles takes an unexpected turn when she allows three young guys to move in with her.",
    "release_date": "2017-09-07"
    },
    {
    "vote_count": 26,
    "id": 29394,
    "video": false,
    "vote_average": 6.2,
    "title": "Homicidal",
    "popularity": 2.626,
    "poster_path": "/ocq19UxQkfIbiv8nGnQFpfFzH05.jpg",
    "original_language": "en",
    "original_title": "Homicidal",
    "genre_ids": [
    27,
    9648,
    53
    ],
    "backdrop_path": "/jPQHiLRWj8nry3cvTaN4iDI8HnQ.jpg",
    "adult": false,
    "overview": "The story centers around a murderous scheme to collect a rich inheritance. The object of murder is Miriam Webster, who is to share in the inheritance with her half brother Warren, who lives with his childhood guardian Helga in the mansion where Warren and Mariam grew up. Confined to a wheelchair after recently suffering a stroke, Helga is cared for by her nurse Emily, a strange young woman who has formed a close bond with Warren.",
    "release_date": "1961-07-26"
    },
    {
    "vote_count": 281,
    "id": 11375,
    "video": false,
    "vote_average": 5.1,
    "title": "Hollywood Homicide",
    "popularity": 8.757,
    "poster_path": "/10ouLkenwj7xNq5xrJwoRexNJin.jpg",
    "original_language": "en",
    "original_title": "Hollywood Homicide",
    "genre_ids": [
    28,
    12,
    35,
    53
    ],
    "backdrop_path": "/oiIIdqjQFrsrhhxTO8CFJSotBqe.jpg",
    "adult": false,
    "overview": "Joe Gavilan (Harrison Ford) and his new partner K. C. Calden (Josh Hartnett), are detectives on the beat in Tinseltown. Neither one of them really wants to be a cop, Gavilan moonlights as a real estate broker, and Calden is an aspiring actor moonlighting as a yoga instructor. When the two are assigned a big case they must work out whether they want to solve the case or follow their hearts.",
    "release_date": "2003-06-09"
    },
    {
    "vote_count": 23,
    "id": 17133,
    "video": false,
    "vote_average": 5.5,
    "title": "Homegrown",
    "popularity": 2.559,
    "poster_path": "/baTGnGmmNXEdYH7e2fLcrmIqAbq.jpg",
    "original_language": "en",
    "original_title": "Homegrown",
    "genre_ids": [
    18,
    28,
    35,
    53,
    80
    ],
    "backdrop_path": "/i72JysXqxwdDX7vgZDQwsAbI3QK.jpg",
    "adult": false,
    "overview": "Three laborers on a Northern California marijuana plantation become increasingly paranoid when they learn that their boss has been murdered. They know enough to run, taking with them enough of the crop to pay them for services rendered. Hooking up with go-between Lucy in the next town, they plot their next move.",
    "release_date": "1998-04-17"
    },
    {
    "vote_count": 1659,
    "id": 274167,
    "video": false,
    "vote_average": 6.1,
    "title": "Daddy's Home",
    "popularity": 7.531,
    "poster_path": "/diEAZtU6KJzo6VStL5US8arkdIQ.jpg",
    "original_language": "en",
    "original_title": "Daddy's Home",
    "genre_ids": [
    35
    ],
    "backdrop_path": "/rVzb10jNhyjzJAfKx2mrsDlreRs.jpg",
    "adult": false,
    "overview": "The story of a mild-mannered radio executive (Ferrell) who strives to become the best stepdad ever to his wife's two children, but complications ensue when their freewheeling, freeloading real father arrives, forcing stepdad to compete for the affection of the kids.",
    "release_date": "2015-12-25"
    },
    {
    "vote_count": 21,
    "id": 79016,
    "video": false,
    "vote_average": 6.9,
    "title": "Homevideo",
    "popularity": 2.455,
    "poster_path": "/4tbyRMlETn7RwobflixlZ1uz0f4.jpg",
    "original_language": "de",
    "original_title": "Homevideo",
    "genre_ids": [
    18
    ],
    "backdrop_path": "/qahJpMyPsMZvmCX7IOlvINCB53i.jpg",
    "adult": false,
    "overview": "Shy, sensitive high school outsider Jakob Moormann is miserably lacking immaterial support at home, where his strict father, uniformed cop Claas, and selfish mother are too busy breaking up to be there for him. Jakob focuses on class dream-girl Hannah, without much luck. His secret recording of himself masturbating gets into class bullies Henry and Erik's hands through the mother's thoughtlessness. The rascals blackmail Jakob and post the video on the Internet. After a raging lecture phase, dad stands up for Jakob, but his life is already wrecked more than anyone realizes.",
    "release_date": "2011-08-18"
    },
    {
    "vote_count": 384,
    "id": 283235,
    "video": false,
    "vote_average": 6.8,
    "title": "99 Homes",
    "popularity": 7.631,
    "poster_path": "/mw4b2KLWInQ3Po5uOOTU6Q0Y5VP.jpg",
    "original_language": "en",
    "original_title": "99 Homes",
    "genre_ids": [
    18
    ],
    "backdrop_path": "/xx1ifvy6TJisK2RkkqnEn11CBdP.jpg",
    "adult": false,
    "overview": "After his family is evicted from their home, proud and desperate construction worker Dennis Nash tries to win his home back by striking a deal with the devil and working for Rick Carver, the corrupt real estate broker who evicted him.",
    "release_date": "2014-10-09"
    },
    {
    "vote_count": 410,
    "id": 6878,
    "video": false,
    "vote_average": 6.6,
    "title": "Homeward Bound: The Incredible Journey",
    "popularity": 25.452,
    "poster_path": "/el6dJEpK97OJRQiQhuiSGk2jkV5.jpg",
    "original_language": "en",
    "original_title": "Homeward Bound: The Incredible Journey",
    "genre_ids": [
    12,
    35,
    18,
    10751
    ],
    "backdrop_path": "/xBodl3B2IvBHQYMjn0WwtrYuxLl.jpg",
    "adult": false,
    "overview": "Remake of the popular Disney classic, this time featuring some well known voices as two dogs and a cat trek across America encountering all sorts of adventures in the quest to be reunited with their owners.",
    "release_date": "1993-02-03"
    }
    ]
}
